
{
    "public": {
        "passStrored": "CE",
        "api_host" : "http://localhost:3000",
        "sqlhost": "128.199.214.155",
        "sqluser": "savemom",
        "sqlpassword": "savemom@aclab1201",
        "sqldatabase": "savemom"
    }
}